{"data":[{"id":401117,"vendor_name":"대충 팜","server_name":"바포메트","coordinates":"대충 팜","item_name":"천공의 룬 크라운(하이퍼 노비스)[1]","quantity":1,"price":10000,"vendor_info":"대충 팜","category":"Unknown","rarity":"Common","image_url":"https://imgc1.gnjoy.com/games/ro1/object/201306/401117.png","ssi":"7594070433566384389","map_id":"2023","cards_equipped":[],"item_icon_url":"https://static.divine-pride.net/images/items/item/401117.png"},{"id":401117,"vendor_name":"ㅇㅇ","server_name":"바포메트","coordinates":"ㅇㅇ","item_name":"천공의 룬 크라운(하이퍼 노비스)[1]","quantity":1,"price":50000,"vendor_info":"ㅇㅇ","category":"Unknown","rarity":"Common","image_url":"https://imgc1.gnjoy.com/games/ro1/object/201306/401117.png","ssi":"7594111235755716040","map_id":"2023","cards_equipped":[],"item_icon_url":"https://static.divine-pride.net/images/items/item/401117.png"},{"id":540122,"vendor_name":"ㅍㅍㅍㅍ","server_name":"바포메트","coordinates":"ㅍㅍㅍㅍ","item_name":"천공의 월성서[2]","quantity":1,"price":50000,"vendor_info":"ㅍㅍㅍㅍ","category":"Unknown","rarity":"Common","image_url":"https://imgc1.gnjoy.com/games/ro1/object/201306/540122.png","ssi":"7594106640140706885","map_id":"2023","cards_equipped":[],"item_icon_url":"https://static.divine-pride.net/images/items/item/540122.png"},{"id":550190,"vendor_name":"ㅍㅍㅍㅍ","server_name":"바포메트","coordinates":"ㅍㅍㅍㅍ","item_name":"천공의 아르비 로드[2]","quantity":1,"price":50000,"vendor_info":"ㅍㅍㅍㅍ","category":"Unknown","rarity":"Common","image_url":"https://imgc1.gnjoy.com/games/ro1/object/201306/550190.png","ssi":"7594106640140706884","map_id":"2023","cards_equipped":[],"item_icon_url":"https://static.divine-pride.net/images/items/item/550190.png"},{"id":401115,"vendor_name":"분수대 왼쪽이요","server_name":"바포메트","coordinates":"분수대 왼쪽이요","item_name":"천공의 룬 크라운(마이스터)[1]","quantity":1,"price":80000,"vendor_info":"분수대 왼쪽이요","category":"Unknown","rarity":"Common","image_url":"https://imgc1.gnjoy.com/games/ro1/object/201306/401115.png","ssi":"7594137538135445595","map_id":"2023","cards_equipped":[],"item_icon_url":"https://static.divine-pride.net/images/items/item/401115.png"},{"id":401120,"vendor_name":"ㅇㅇ","server_name":"바포메트","coordinates":"ㅇㅇ","item_name":"천공의 룬 크라운(천제)[1]","quantity":1,"price":99000,"vendor_info":"ㅇㅇ","category":"Unknown","rarity":"Common","image_url":"https://imgc1.gnjoy.com/games/ro1/object/201306/401120.png","ssi":"7594111235755716039","map_id":"2023","cards_equipped":[],"item_icon_url":"https://static.divine-pride.net/images/items/item/401120.png"},{"id":500134,"vendor_name":"ㅇㅇ","server_name":"바포메트","coordinates":"ㅇㅇ","item_name":"천공의 네이팜 소드[2]","quantity":1,"price":99000,"vendor_info":"ㅇㅇ","category":"Unknown","rarity":"Common","image_url":"https://imgc1.gnjoy.com/games/ro1/object/201306/500134.png","ssi":"7594111235755716037","map_id":"2023","cards_equipped":[],"item_icon_url":"https://static.divine-pride.net/images/items/item/500134.png"},{"id":500134,"vendor_name":"+-","server_name":"바포메트","coordinates":"+-","item_name":"천공의 네이팜 소드[2]","quantity":1,"price":100000,"vendor_info":"+-","category":"Unknown","rarity":"Common","image_url":"https://imgc1.gnjoy.com/games/ro1/object/201306/500134.png","ssi":"7593648710727459311","map_id":"2023","cards_equipped":[],"item_icon_url":"https://static.divine-pride.net/images/items/item/500134.png"},{"id":401120,"vendor_name":"여러가지","server_name":"바포메트","coordinates":"여러가지","item_name":"천공의 룬 크라운(천제)[1]","quantity":1,"price":100000,"vendor_info":"여러가지","category":"Unknown","rarity":"Common","image_url":"https://imgc1.gnjoy.com/games/ro1/object/201306/401120.png","ssi":"7593933703282466115","map_id":"2023","cards_equipped":[],"item_icon_url":"https://static.divine-pride.net/images/items/item/401120.png"},{"id":401120,"vendor_name":"+-","server_name":"바포메트","coordinates":"+-","item_name":"천공의 룬 크라운(천제)[1]","quantity":1,"price":100000,"vendor_info":"+-","category":"Unknown","rarity":"Common","image_url":"https://imgc1.gnjoy.com/games/ro1/object/201306/401120.png","ssi":"7593648710727459308","map_id":"2023","cards_equipped":[],"item_icon_url":"https://static.divine-pride.net/images/items/item/401120.png"}],"total":390,"page":1,"size":0,"totalPages":39,"scrapedAt":"2026-01-11T16:37:39.683792","refreshTriggered":false,"reason":null,"stale":false}