{"data":[{"id":1001432,"vendor_name":"월드 ㅇ 선의으 맥시멈 오염되 에테르","server_name":"바포메트","coordinates":"월드 ㅇ 선의으 맥시멈 오염되 에테르","item_name":"오염된 정령들의 분노","quantity":372,"price":1050,"vendor_info":"월드 ㅇ 선의으 맥시멈 오염되 에테르","category":"Unknown","rarity":"Common","image_url":"https://imgc1.gnjoy.com/games/ro1/object/201306/1001432.png","ssi":"7593560599473348905","map_id":"2023","cards_equipped":[],"item_icon_url":"https://static.divine-pride.net/images/items/item/1001432.png"},{"id":1001432,"vendor_name":"삼▶오염된분노/12시카프라/4","server_name":"바포메트","coordinates":"삼▶오염된분노/12시카프라/4","item_name":"오염된 정령들의 분노","quantity":1000,"price":1051,"vendor_info":"삼▶오염된분노/12시카프라/4","category":"Unknown","rarity":"Common","image_url":"https://imgc1.gnjoy.com/games/ro1/object/201306/1001432.png","ssi":"7594112979512438967","map_id":"2023","cards_equipped":[],"item_icon_url":"https://static.divine-pride.net/images/items/item/1001432.png"},{"id":1001432,"vendor_name":"프론테라 잡템상인.","server_name":"바포메트","coordinates":"프론테라 잡템상인.","item_name":"오염된 정령들의 분노","quantity":700,"price":3550,"vendor_info":"프론테라 잡템상인.","category":"Unknown","rarity":"Common","image_url":"https://imgc1.gnjoy.com/games/ro1/object/201306/1001432.png","ssi":"7594146033580759284","map_id":"2023","cards_equipped":[],"item_icon_url":"https://static.divine-pride.net/images/items/item/1001432.png"},{"id":1001432,"vendor_name":"▶12시카프라 06","server_name":"바포메트","coordinates":"▶12시카프라 06","item_name":"오염된 정령들의 분노","quantity":321,"price":3599,"vendor_info":"▶12시카프라 06","category":"Unknown","rarity":"Common","image_url":"https://imgc1.gnjoy.com/games/ro1/object/201306/1001432.png","ssi":"7594129983287970090","map_id":"2023","cards_equipped":[],"item_icon_url":"https://static.divine-pride.net/images/items/item/1001432.png"},{"id":1001432,"vendor_name":"173 144","server_name":"바포메트","coordinates":"173 144","item_name":"오염된 정령들의 분노","quantity":5196,"price":3600,"vendor_info":"173 144","category":"Unknown","rarity":"Common","image_url":"https://imgc1.gnjoy.com/games/ro1/object/201306/1001432.png","ssi":"7593974651500680452","map_id":"2023","cards_equipped":[],"item_icon_url":"https://static.divine-pride.net/images/items/item/1001432.png"},{"id":1001432,"vendor_name":"냠냠!!쩝쩝!! 맛도리 판매점!","server_name":"바포메트","coordinates":"냠냠!!쩝쩝!! 맛도리 판매점!","item_name":"오염된 정령들의 분노","quantity":388,"price":3600,"vendor_info":"냠냠!!쩝쩝!! 맛도리 판매점!","category":"Unknown","rarity":"Common","image_url":"https://imgc1.gnjoy.com/games/ro1/object/201306/1001432.png","ssi":"7594141227512353767","map_id":"2023","cards_equipped":[],"item_icon_url":"https://static.divine-pride.net/images/items/item/1001432.png"},{"id":1001432,"vendor_name":"1시 분수대","server_name":"바포메트","coordinates":"1시 분수대","item_name":"오염된 정령들의 분노","quantity":12,"price":3600,"vendor_info":"1시 분수대","category":"Unknown","rarity":"Common","image_url":"https://imgc1.gnjoy.com/games/ro1/object/201306/1001432.png","ssi":"7593510928176555979","map_id":"2023","cards_equipped":[],"item_icon_url":"https://static.divine-pride.net/images/items/item/1001432.png"},{"id":1001432,"vendor_name":"대축사게 사주세여\\ㅠㅠ","server_name":"바포메트","coordinates":"대축사게 사주세여\\ㅠㅠ","item_name":"오염된 정령들의 분노","quantity":138,"price":3788,"vendor_info":"대축사게 사주세여\\ㅠㅠ","category":"Unknown","rarity":"Common","image_url":"https://imgc1.gnjoy.com/games/ro1/object/201306/1001432.png","ssi":"7594091779553855646","map_id":"2023","cards_equipped":[],"item_icon_url":"https://static.divine-pride.net/images/items/item/1001432.png"},{"id":1001435,"vendor_name":"심층 ㅎ 화염으 듀러블 오염되 로키의","server_name":"바포메트","coordinates":"심층 ㅎ 화염으 듀러블 오염되 로키의","item_name":"오염된 벤투스의 분노","quantity":1130,"price":3950,"vendor_info":"심층 ㅎ 화염으 듀러블 오염되 로키의","category":"Unknown","rarity":"Common","image_url":"https://imgc1.gnjoy.com/games/ro1/object/201306/1001435.png","ssi":"7593967397300914397","map_id":"2023","cards_equipped":[],"item_icon_url":"https://static.divine-pride.net/images/items/item/1001435.png"},{"id":1001435,"vendor_name":"최고가매입","server_name":"바포메트","coordinates":"최고가매입","item_name":"오염된 벤투스의 분노","quantity":558,"price":4050,"vendor_info":"최고가매입","category":"Unknown","rarity":"Common","image_url":"https://imgc1.gnjoy.com/games/ro1/object/201306/1001435.png","ssi":"7594140523137717061","map_id":"2023","cards_equipped":[],"item_icon_url":"https://static.divine-pride.net/images/items/item/1001435.png"}],"total":190,"page":1,"size":0,"totalPages":19,"scrapedAt":"2026-01-11T16:48:41.892464076","refreshTriggered":true,"reason":null,"stale":false}