{"data":[{"id":1001432,"vendor_name":"월드 ㅇ 선의으 맥시멈 오염되 에테르","server_name":"바포메트","coordinates":"월드 ㅇ 선의으 맥시멈 오염되 에테르","item_name":"오염된 정령들의 분노","quantity":372,"price":1050,"vendor_info":"월드 ㅇ 선의으 맥시멈 오염되 에테르","category":"Unknown","rarity":"Common","image_url":"https://imgc1.gnjoy.com/games/ro1/object/201306/1001432.png","ssi":"7593560599473348905","map_id":"2023","cards_equipped":[],"item_icon_url":"https://static.divine-pride.net/images/items/item/1001432.png","shop_type":"sell"},{"id":1001432,"vendor_name":"삼▶오염된분노/12시카프라/4","server_name":"바포메트","coordinates":"삼▶오염된분노/12시카프라/4","item_name":"오염된 정령들의 분노","quantity":623,"price":1052,"vendor_info":"삼▶오염된분노/12시카프라/4","category":"Unknown","rarity":"Common","image_url":"https://imgc1.gnjoy.com/games/ro1/object/201306/1001432.png","ssi":"7594359132678153256","map_id":"2023","cards_equipped":[],"item_icon_url":"https://static.divine-pride.net/images/items/item/1001432.png","shop_type":"sell"},{"id":1001435,"vendor_name":"삼▶오염된분노/12시카프라/4","server_name":"바포메트","coordinates":"삼▶오염된분노/12시카프라/4","item_name":"오염된 벤투스의 분노","quantity":549,"price":2000,"vendor_info":"삼▶오염된분노/12시카프라/4","category":"Unknown","rarity":"Common","image_url":"https://imgc1.gnjoy.com/games/ro1/object/201306/1001435.png","ssi":"7594359132678153255","map_id":"2023","cards_equipped":[],"item_icon_url":"https://static.divine-pride.net/images/items/item/1001435.png","shop_type":"sell"},{"id":1001432,"vendor_name":"1시 분수대","server_name":"바포메트","coordinates":"1시 분수대","item_name":"오염된 정령들의 분노","quantity":12,"price":3600,"vendor_info":"1시 분수대","category":"Unknown","rarity":"Common","image_url":"https://imgc1.gnjoy.com/games/ro1/object/201306/1001432.png","ssi":"7593510928176555979","map_id":"2023","cards_equipped":[],"item_icon_url":"https://static.divine-pride.net/images/items/item/1001432.png","shop_type":"sell"},{"id":1001432,"vendor_name":"냠냠!!쩝쩝!! 맛도리 판매점!","server_name":"바포메트","coordinates":"냠냠!!쩝쩝!! 맛도리 판매점!","item_name":"오염된 정령들의 분노","quantity":388,"price":3600,"vendor_info":"냠냠!!쩝쩝!! 맛도리 판매점!","category":"Unknown","rarity":"Common","image_url":"https://imgc1.gnjoy.com/games/ro1/object/201306/1001432.png","ssi":"7594515984883854006","map_id":"2023","cards_equipped":[],"item_icon_url":"https://static.divine-pride.net/images/items/item/1001432.png","shop_type":"sell"},{"id":1001432,"vendor_name":"프론테라 잡템상인!","server_name":"바포메트","coordinates":"프론테라 잡템상인!","item_name":"오염된 정령들의 분노","quantity":400,"price":3600,"vendor_info":"프론테라 잡템상인!","category":"Unknown","rarity":"Common","image_url":"https://imgc1.gnjoy.com/games/ro1/object/201306/1001432.png","ssi":"7594518407245409471","map_id":"2023","cards_equipped":[],"item_icon_url":"https://static.divine-pride.net/images/items/item/1001432.png","shop_type":"sell"},{"id":1001435,"vendor_name":"분노 삼","server_name":"바포메트","coordinates":"분노 삼","item_name":"오염된 벤투스의 분노","quantity":764,"price":3600,"vendor_info":"분노 삼","category":"Unknown","rarity":"Common","image_url":"https://imgc1.gnjoy.com/games/ro1/object/201306/1001435.png","ssi":"7594233440459817199","map_id":"2006","cards_equipped":[],"item_icon_url":"https://static.divine-pride.net/images/items/item/1001435.png","shop_type":"sell"},{"id":1001435,"vendor_name":"9시 서버 최고가ㅅㅅㅅㅅㅅㅅㅅㅅㅅㅅ","server_name":"바포메트","coordinates":"9시 서버 최고가ㅅㅅㅅㅅㅅㅅㅅㅅㅅㅅ","item_name":"오염된 벤투스의 분노","quantity":600,"price":3610,"vendor_info":"9시 서버 최고가ㅅㅅㅅㅅㅅㅅㅅㅅㅅㅅ","category":"Unknown","rarity":"Common","image_url":"https://imgc1.gnjoy.com/games/ro1/object/201306/1001435.png","ssi":"7594279972135905322","map_id":"2023","cards_equipped":[],"item_icon_url":"https://static.divine-pride.net/images/items/item/1001435.png","shop_type":"sell"},{"id":1001435,"vendor_name":"ty78y7u8","server_name":"바포메트","coordinates":"ty78y7u8","item_name":"오염된 벤투스의 분노","quantity":2000,"price":3634,"vendor_info":"ty78y7u8","category":"Unknown","rarity":"Common","image_url":"https://imgc1.gnjoy.com/games/ro1/object/201306/1001435.png","ssi":"7594425348188973530","map_id":"2023","cards_equipped":[],"item_icon_url":"https://static.divine-pride.net/images/items/item/1001435.png","shop_type":"sell"},{"id":1001432,"vendor_name":"173 144","server_name":"바포메트","coordinates":"173 144","item_name":"오염된 정령들의 분노","quantity":5192,"price":3650,"vendor_info":"173 144","category":"Unknown","rarity":"Common","image_url":"https://imgc1.gnjoy.com/games/ro1/object/201306/1001432.png","ssi":"7594501042692627626","map_id":"2023","cards_equipped":[],"item_icon_url":"https://static.divine-pride.net/images/items/item/1001432.png","shop_type":"sell"}],"total":185,"page":1,"size":0,"totalPages":19,"scrapedAt":"2026-01-12T16:56:38.96828509","refreshTriggered":true,"reason":null,"stale":false}